The Ultimate Tool for Reading Data in Bulk • bulkreadr
…
For the majority of functions within this package, we will utilize data stored in the system file by the bulkreadr, which can be accessed using the system.file() function. If you wish to utilize your own data stored in your local directory, please ensure that you have set the appropriate file path prior to using any functions provided by the bulkreadr package.

read_excel_workbook()

read_excel_workbook() reads all the data from the sheets of an Excel workbook and return an appended dataframe.

# path to the xls/xlsx file.

path <- system.file("extdata", "Diamonds.xlsx", package = "bulkreadr", mustWork = TRUE)

# read the sheets

read_excel_workbook(path = path)
#> # A tibble: 260 × 9
#>   carat color clarity depth table price     x     y     z
#>   <dbl> <chr> <chr>   <dbl> <dbl> <dbl> <dbl> <dbl> <dbl>
#> 1  2    I     SI1      65.9    60 13764  7.8   7.73  5.12
#> 2  0.7  H     SI1      65.2    58  2048  5.49  5.55  3.6 
#> 3  1.51 E     SI1      58.4    70 11102  7.55  7.39  4.36
#> 4  0.7  D     SI2      65.5    57  1806  5.56  5.43  3.6 
#> 5  0.35 F     VVS1     54.6    59  1011  4.85  4.79  2.63
#> # ℹ 255 more rows

read_excel_files_from_dir()

read_excel_files_from_dir() reads all Excel workbooks in the "~/data" directory and returns an appended dataframe.

# path to the directory containing the xls/xlsx files.

directory <- system.file("xlsxfolder",  package = "bulkreadr")

# import the workbooks

read_excel_files_from_dir(dir_path = directory)
#> # A tibble: 260 × 10
#>   cut   carat color clarity depth table price     x     y     z
#>   <chr> <dbl> <chr> <chr>   <dbl> <dbl> <dbl> <dbl> <dbl> <dbl>
#> 1 Fair   2    I     SI1      65.9    60 13764  7.8   7.73  5.12
#> 2 Fair   0.7  H     SI1      65.2    58  2048  5.49  5.55  3.6 
#> 3 Fair   1.51 E     SI1      58.4    70 11102  7.55  7.39  4.36
#> 4 Fair   0.7  D     SI2      65.5    57  1806  5.56  5.43  3.6 
#> 5 Fair   0.35 F     VVS1     54.6    59  1011  4.85  4.79  2.63
#> # ℹ 255 more rows

read_csv_files_from_dir()

read_csv_files_from_dir() reads all csv files from the "~/data" directory and returns an appended dataframe. The resulting dataframe will be in the same order as the CSV files in the directory.

# path to the directory containing the CSV files.

directory <- system.file("csvfolder",  package = "bulkreadr")

# import the csv files

read_csv_files_from_dir(dir_path = directory)
#> # A tibble: 260 × 10
#>   cut   carat color clarity depth table price     x     y     z
#>   <chr> <dbl> <chr> <chr>   <dbl> <dbl> <dbl> <dbl> <dbl> <dbl>
#> 1 Fair   2    I     SI1      65.9    60 13764  7.8   7.73  5.12
#> 2 Fair   0.7  H     SI1      65.2    58  2048  5.49  5.55  3.6 
#> 3 Fair   1.51 E     SI1      58.4    70 11102  7.55  7.39  4.36
#> 4 Fair   0.7  D     SI2      65.5    57  1806  5.56  5.43  3.6 
#> 5 Fair   0.35 F     VVS1     54.6    59  1011  4.85  4.79  2.63
#> # ℹ 255 more rows

read_gsheets()

The read_gsheets() function imports data from multiple sheets in a Google Sheets spreadsheet and appends the resulting dataframes from each sheet together to create a single dataframe. This function is a powerful tool for data analysis, as it allows you to easily combine data from multiple sheets into a single dataset.

# Google Sheet ID or the link to the sheet

sheet_id <- "1izO0mHu3L9AMySQUXGDn9GPs1n-VwGFSEoAKGhqVQh0"

# read all the sheets

read_gsheets(ss = sheet_id)
#> # A tibble: 260 × 9
#>   carat color clarity depth table price     x     y     z
#>   <dbl> <chr> <chr>   <dbl> <dbl> <dbl> <dbl> <dbl> <dbl>
#> 1  2    I     SI1      65.9    60 13764  7.8   7.73  5.12
#> 2  0.7  H     SI1      65.2    58  2048  5.49  5.55  3.6 
#> 3  1.51 E     SI1      58.4    70 11102  7.55  7.39  4.36
#> 4  0.7  D     SI2      65.5    57  1806  5.56  5.43  3.6 
#> 5  0.35 F     VVS1     54.6    59  1011  4.85  4.79  2.63
#> # ℹ 255 more rows

read_spss_data()

read_spss_data() is designed to seamlessly import data from an SPSS data (.sav or .zsav) files. It converts labelled variables into factors, a crucial step that enhances the ease of data manipulation and analysis within the R programming environment.

# Read an SPSS data file without converting variable labels as column names

file_path <- system.file("extdata", "Wages.sav", package = "bulkreadr")

data <- read_spss_data(file = file_path)

data
#> # A tibble: 400 × 9
#>      id  educ south                  sex   exper  wage occup marr        ed     
#>   <dbl> <dbl> <fct>                  <fct> <dbl> <dbl> <fct> <fct>       <fct>  
#> 1     3    12 does not live in South Male     17  7.5  Other Married     High s…
#> 2     4    13 does not live in South Male      9 13.1  Other Not married Some c…
#> 3     5    10 lives in South         Male     27  4.45 Other Not married Less t…
#> 4    12     9 lives in South         Male     30  6.25 Other Not married Less t…
#> 5    13     9 lives in South         Male     29 20.0  Other Married     Less t…
#> # ℹ 395 more rows

# Read an SPSS data file and convert variable labels as column names

data <- read_spss_data(file = file_path, label = TRUE)

data
#> # A tibble: 400 × 9
#>   `Worker ID` `Number of years of education` `Live in south`        Gender
#>         <dbl>                          <dbl> <fct>                  <fct> 
#> 1           3                             12 does not live in South Male  
#> 2           4                             13 does not live in South Male  
#> 3           5                             10 lives in South         Male  
#> 4          12                              9 lives in South         Male  
#> 5          13                              9 lives in South         Male  
#> # ℹ 395 more rows
#> # ℹ 5 more variables: `Number of years of work experience` <dbl>,
#> #   `Wage (dollars per hour)` <dbl>, Occupation <fct>, `Marital status` <fct>,
#> #   `Highest education level` <fct>

read_stata_data()

read_stata_data() reads Stata data file (.dta) into an R data frame, converting labeled variables into factors.

Read the Stata data file without converting variable labels as column names

file_path <- system.file("extdata", "Wages.dta", package = "bulkreadr")

data <- read_stata_data(file = file_path)

data
#> # A tibble: 400 × 9
#>      id  educ south                  sex   exper  wage occup marr        ed     
#>   <dbl> <dbl> <fct>                  <fct> <dbl> <dbl> <fct> <fct>       <fct>  
#> 1     3    12 does not live in South Male     17  7.5  Other Married     High s…
#> 2     4    13 does not live in South Male      9 13.1  Other Not married Some c…
#> 3     5    10 lives in South         Male     27  4.45 Other Not married Less t…
#> 4    12     9 lives in South         Male     30  6.25 Other Not married Less t…
#> 5    13     9 lives in South         Male     29 20.0  Other Married     Less t…
#> # ℹ 395 more rows

Read the Stata data file and convert variable labels as column names

data <- read_stata_data(file = file_path, label = TRUE)

data
#> # A tibble: 400 × 9
#>   `Worker ID` `Number of years of education` `Live in south`        Gender
#>         <dbl>                          <dbl> <fct>                  <fct> 
#> 1           3                             12 does not live in South Male  
#> 2           4                             13 does not live in South Male  
#> 3           5                             10 lives in South         Male  
#> 4          12                              9 lives in South         Male  
#> 5          13                              9 lives in South         Male  
#> # ℹ 395 more rows
#> # ℹ 5 more variables: `Number of years of work experience` <dbl>,
#> #   `Wage (dollars per hour)` <dbl>, Occupation <fct>, `Marital status` <fct>,
#> #   `Highest education level` <fct>

generate_dictionary()

generate_dictionary() creates a data dictionary from a specified data frame. This function is particularly useful for understanding and documenting the structure of your dataset, similar to data dictionaries in Stata or SPSS.

# Creating a data dictionary from an SPSS file

file_path <- system.file("extdata", "Wages.sav", package = "bulkreadr")

wage_data <- read_spss_data(file = file_path)

generate_dictionary(wage_data)
#> # A tibble: 9 × 6
#>   position variable description                     `column type` missing levels
#>      <int> <chr>    <chr>                           <chr>           <int> <name>
#> 1        1 id       Worker ID                       dbl                 0 <NULL>
#> 2        2 educ     Number of years of education    dbl                 0 <NULL>
#> 3        3 south    Live in south                   fct                 0 <chr> 
#> 4        4 sex      Gender                          fct                 0 <chr> 
#> 5        5 exper    Number of years of work experi… dbl                 0 <NULL>
#> # ℹ 4 more rows
…
# It can also convert date time object to date object 

convert_to_date(lubridate::now())
#> [1] "2023-11-25"

# With dataframe

file_path <- system.file("extdata", "OGD.xlsx", package = "bulkreadr")

ogd_data <- read_excel_workbook(path = file_path)

ogd_data %>% head()
#> # A tibble: 6 × 2
#>   PID         Date      
#>   <chr>       <chr>     
#> 1 NIG-CON-002 22.09.2022
#> 2 NIG-CON-004 44569     
#> 3 NIG-CON-007 44569     
#> 4 NIG-CON-009 44569     
#> 5 NIG-CON-010 44569     
#> # ℹ 1 more row

# Convert to POSIXct or Date object

modified_ogd_data <- ogd_data  %>% 
  mutate(Date_format = convert_to_date(Date))

modified_ogd_data %>% head()
#> # A tibble: 6 × 3
#>   PID         Date       Date_format
#>   <chr>       <chr>      <date>     
#> 1 NIG-CON-002 22.09.2022 2022-09-22 
#> 2 NIG-CON-004 44569      2022-01-08 
#> 3 NIG-CON-007 44569      2022-01-08 
#> 4 NIG-CON-009 44569      2022-01-08 
#> 5 NIG-CON-010 44569      2022-01-08 
#> # ℹ 1 more row

inspect_na()

inspect_na() summarizes the rate of missingness in each column of a data frame. For a grouped data frame, the rate of missingness is summarized separately for each group.

# dataframe summary

inspect_na(airquality)
#> # A tibble: 6 × 3
#>   col_name   cnt  pcnt
#>   <chr>    <int> <dbl>
#> 1 Ozone       37 24.2 
#> 2 Solar.R      7  4.58
#> 3 Wind         0  0   
#> 4 Temp         0  0   
#> 5 Month        0  0   
#> # ℹ 1 more row

# grouped dataframe summary

airquality %>% 
  group_by(Month) %>% 
  inspect_na()
#> # A tibble: 25 × 4
#> # Groups:   Month [5]
#>   Month col_name   cnt  pcnt
#>   <int> <chr>    <int> <dbl>
#> 1     5 Ozone        5  16.1
#> 2     5 Solar.R      4  12.9
#> 3     5 Wind         0   0  
#> 4     5 Temp         0   0  
#> 5     5 Day          0   0  
#> # ℹ 20 more rows
…
fill_missing_values() in an efficient function that addresses missing values in a dataframe. It uses imputation by function, meaning it replaces missing data in numeric variables with either the mean or the median, and in non-numeric variables with the mode. The function takes a column-based imputation approach, ensuring that replacement values are derived from the respective columns, resulting in accurate and consistent data. This method enhances the integrity of the dataset and promotes sound decision-making and analysis in data processing workflows.

df <- tibble::tibble(
  Sepal_Length = c(5.2, 5, 5.7, NA, 6.2, 6.7, 5.5),
  Sepal.Width = c(4.1, 3.6, 3, 3, 2.9, 2.5, 2.4),
  Petal_Length = c(1.5, 1.4, 4.2, 1.4, NA, 5.8, 3.7),
  Petal_Width = c(NA, 0.2, 1.2, 0.2, 1.3, 1.8, NA),
  Species = c("setosa", NA, "versicolor", "setosa",
    NA, "virginica", "setosa"
  )
)

df
#> # A tibble: 7 × 5
#>   Sepal_Length Sepal.Width Petal_Length Petal_Width Species   
#>          <dbl>       <dbl>        <dbl>       <dbl> <chr>     
#> 1          5.2         4.1          1.5        NA   setosa    
#> 2          5           3.6          1.4         0.2 <NA>      
#> 3          5.7         3            4.2         1.2 versicolor
#> 4         NA           3            1.4         0.2 setosa    
#> 5          6.2         2.9         NA           1.3 <NA>      
#> # ℹ 2 more rows

# Using mean to fill missing values for numeric variables

result_df_mean <- fill_missing_values(df, use_mean = TRUE)

result_df_mean
#> # A tibble: 7 × 5
#>   Sepal_Length Sepal.Width Petal_Length Petal_Width Species   
#>          <dbl>       <dbl>        <dbl>       <dbl> <chr>     
#> 1         5.2          4.1          1.5        0.94 setosa    
#> 2         5            3.6          1.4        0.2  setosa    
#> 3         5.7          3            4.2        1.2  versicolor
#> 4         5.72         3            1.4        0.2  setosa    
#> 5         6.2          2.9          3          1.3  setosa    
#> # ℹ 2 more rows

# Using median to fill missing values for numeric variables

result_df_median <- fill_missing_values(df, use_mean = FALSE)

result_df_median
#> # A tibble: 7 × 5
#>   Sepal_Length Sepal.Width Petal_Length Petal_Width Species   
#>          <dbl>       <dbl>        <dbl>       <dbl> <chr>     
#> 1          5.2         4.1          1.5         1.2 setosa    
#> 2          5           3.6          1.4         0.2 setosa    
#> 3          5.7         3            4.2         1.2 versicolor
#> 4          5.6         3            1.4         0.2 setosa    
#> 5          6.2         2.9          2.6         1.3 setosa    
#> # ℹ 2 more rows

Impute missing values (NAs) in a grouped data frame

You can use the fill_missing_values() in a grouped data frame by using other grouping and map functions. Here is an example of how to do this:

sample_iris <- tibble::tibble(
Sepal_Length = c(5.2, 5, 5.7, NA, 6.2, 6.7, 5.5),
Petal_Length = c(1.5, 1.4, 4.2, 1.4, NA, 5.8, 3.7),
Petal_Width = c(0.3, 0.2, 1.2, 0.2, 1.3, 1.8, NA),
Species = c("setosa", "setosa", "versicolor", "setosa",
          "virginica", "virginica", "setosa")
)

sample_iris
#> # A tibble: 7 × 4
#>   Sepal_Length Petal_Length Petal_Width Species   
#>          <dbl>        <dbl>       <dbl> <chr>     
#> 1          5.2          1.5         0.3 setosa    
#> 2          5            1.4         0.2 setosa    
#> 3          5.7          4.2         1.2 versicolor
#> 4         NA            1.4         0.2 setosa    
#> 5          6.2         NA           1.3 virginica 
#> # ℹ 2 more rows

sample_iris %>%
  group_by(Species) %>%
  group_split() %>%
  map_df(fill_missing_values)
#> # A tibble: 7 × 4
#>   Sepal_Length Petal_Length Petal_Width Species   
#>          <dbl>        <dbl>       <dbl> <chr>     
#> 1         5.2           1.5       0.3   setosa    
#> 2         5             1.4       0.2   setosa    
#> 3         5.23          1.4       0.2   setosa    
#> 4         5.5           3.7       0.233 setosa    
#> 5         5.7           4.2       1.2   versicolor
#> # ℹ 2 more rows
…
