Summarize missingness in data frame columns — inspect_na • bulkreadr
…
# grouped dataframe summary

airquality %>%
group_by(Month) %>%
 inspect_na()
#> # A tibble: 25 × 4
#> # Groups:   Month [5]
#>    Month col_name   cnt  pcnt
#>    <int> <chr>    <int> <dbl>
#>  1     5 Ozone        5  16.1
#>  2     5 Solar.R      4  12.9
#>  3     5 Wind         0   0  
#>  4     5 Temp         0   0  
#>  5     5 Day          0   0  
#>  6     6 Ozone       21  70  
#>  7     6 Solar.R      0   0  
#>  8     6 Wind         0   0  
#>  9     6 Temp         0   0  
#> 10     6 Day          0   0  
#> # ℹ 15 more rows
…
