…
**Read the SPSS data file without converting variable labels as column
names**

``` r

library(bulkreadr)

file_path <- system.file("extdata", "Wages.sav", package = "bulkreadr")

data <- read_spss_data(file = file_path)

data
#> # A tibble: 400 × 9
#>      id  educ south                  sex   exper  wage occup marr        ed     
#>   <dbl> <dbl> <fct>                  <fct> <dbl> <dbl> <fct> <fct>       <fct>  
#> 1     3    12 does not live in South Male     17  7.5  Other Married     High s…
#> 2     4    13 does not live in South Male      9 13.1  Other Not married Some c…
#> 3     5    10 lives in South         Male     27  4.45 Other Not married Less t…
#> 4    12     9 lives in South         Male     30  6.25 Other Not married Less t…
#> 5    13     9 lives in South         Male     29 20.0  Other Married     Less t…
#> # ℹ 395 more rows
```

**Read the SPSS data file and convert variable labels as column names**

``` r

data <- read_spss_data(file = file_path, label = TRUE)

data
#> # A tibble: 400 × 9
#>   `Worker ID` `Number of years of education` `Live in south`        Gender
#>         <dbl>                          <dbl> <fct>                  <fct> 
#> 1           3                             12 does not live in South Male  
#> 2           4                             13 does not live in South Male  
#> 3           5                             10 lives in South         Male  
#> 4          12                              9 lives in South         Male  
#> 5          13                              9 lives in South         Male  
#> # ℹ 395 more rows
#> # ℹ 5 more variables: `Number of years of work experience` <dbl>,
#> #   `Wage (dollars per hour)` <dbl>, Occupation <fct>, `Marital status` <fct>,
#> #   `Highest education level` <fct>
```
…
[`read_stata_data()`](https://gbganalyst.github.io/bulkreadr/reference/read_stata_data.md)
reads Stata data file (`.dta`) into an R data frame, converting labeled
variables into factors.

**Read the Stata data file without converting variable labels as column
names**

``` r

file_path <- system.file("extdata", "Wages.dta", package = "bulkreadr")

data <- read_stata_data(file = file_path)

data
#> # A tibble: 400 × 9
#>      id  educ south                  sex   exper  wage occup marr        ed     
#>   <dbl> <dbl> <fct>                  <fct> <dbl> <dbl> <fct> <fct>       <fct>  
#> 1     3    12 does not live in South Male     17  7.5  Other Married     High s…
#> 2     4    13 does not live in South Male      9 13.1  Other Not married Some c…
#> 3     5    10 lives in South         Male     27  4.45 Other Not married Less t…
#> 4    12     9 lives in South         Male     30  6.25 Other Not married Less t…
#> 5    13     9 lives in South         Male     29 20.0  Other Married     Less t…
#> # ℹ 395 more rows
```

**Read the Stata data file and convert variable labels as column names**

``` r

data <- read_stata_data(file = file_path, label = TRUE)

data
#> # A tibble: 400 × 9
#>   `Worker ID` `Number of years of education` `Live in south`        Gender
#>         <dbl>                          <dbl> <fct>                  <fct> 
#> 1           3                             12 does not live in South Male  
#> 2           4                             13 does not live in South Male  
#> 3           5                             10 lives in South         Male  
#> 4          12                              9 lives in South         Male  
#> 5          13                              9 lives in South         Male  
#> # ℹ 395 more rows
#> # ℹ 5 more variables: `Number of years of work experience` <dbl>,
#> #   `Wage (dollars per hour)` <dbl>, Occupation <fct>, `Marital status` <fct>,
#> #   `Highest education level` <fct>
```
…
[`generate_dictionary()`](https://gbganalyst.github.io/bulkreadr/reference/generate_dictionary.md)
creates a data dictionary from a specified data frame. This function is
particularly useful for understanding and documenting the structure of
your dataset, similar to data dictionaries in Stata or SPSS.

``` r

# Creating a data dictionary from an SPSS file

file_path <- system.file("extdata", "Wages.sav", package = "bulkreadr")

wage_data <- read_spss_data(file = file_path)

generate_dictionary(wage_data)
#> # A tibble: 9 × 6
#>   position variable description                     `column type` missing levels
#>      <int> <chr>    <chr>                           <chr>           <int> <name>
#> 1        1 id       Worker ID                       dbl                 0 <NULL>
#> 2        2 educ     Number of years of education    dbl                 0 <NULL>
#> 3        3 south    Live in south                   fct                 0 <chr> 
#> 4        4 sex      Gender                          fct                 0 <chr> 
#> 5        5 exper    Number of years of work experi… dbl                 0 <NULL>
#> # ℹ 4 more rows
```
…
