Other functions in bulkreadr • bulkreadr
…
# It can also convert date time object to date object 

convert_to_date(lubridate::now())
#> [1] "2024-07-02"

inspect_na()

inspect_na() summarizes the rate of missingness in each
column of a data frame. For a grouped data frame, the rate of
missingness is summarized separately for each group.

# dataframe summary

inspect_na(airquality)
#> # A tibble: 6 × 3
#>   col_name   cnt  pcnt
#>   <chr>    <int> <dbl>
#> 1 Ozone       37 24.2 
#> 2 Solar.R      7  4.58
#> 3 Wind         0  0   
#> 4 Temp         0  0   
#> 5 Month        0  0   
#> # ℹ 1 more row

Grouped dataframe summary

airquality %>% 
  group_by(Month) %>% 
  inspect_na()
#> # A tibble: 25 × 4
#> # Groups:   Month [5]
#>   Month col_name   cnt  pcnt
#>   <int> <chr>    <int> <dbl>
#> 1     5 Ozone        5  16.1
#> 2     5 Solar.R      4  12.9
#> 3     5 Wind         0   0  
#> 4     5 Temp         0   0  
#> 5     5 Day          0   0  
#> # ℹ 20 more rows
…
df <- tibble::tibble(
  Sepal_Length = c(5.2, 5, 5.7, NA, 6.2, 6.7, 5.5),
  Sepal.Width = c(4.1, 3.6, 3, 3, 2.9, 2.5, 2.4),
  Petal_Length = c(1.5, 1.4, 4.2, 1.4, NA, 5.8, 3.7),
  Petal_Width = c(NA, 0.2, 1.2, 0.2, 1.3, 1.8, NA),
  Species = c("setosa", NA, "versicolor", "setosa",
    NA, "virginica", "setosa"
  )
)

df
#> # A tibble: 7 × 5
#>   Sepal_Length Sepal.Width Petal_Length Petal_Width Species   
#>          <dbl>       <dbl>        <dbl>       <dbl> <chr>     
#> 1          5.2         4.1          1.5        NA   setosa    
#> 2          5           3.6          1.4         0.2 NA        
#> 3          5.7         3            4.2         1.2 versicolor
#> 4         NA           3            1.4         0.2 setosa    
#> 5          6.2         2.9         NA           1.3 NA        
#> # ℹ 2 more rows
Impute using the mean method for continuous
variables

#' df <- tibble::tibble(
#' Sepal_Length = c(5.2, 5, 5.7, NA, 6.2, 6.7, 5.5),
#' Petal_Length = c(1.5, 1.4, 4.2, 1.4, NA, 5.8, 3.7),
#' Petal_Width = c(NA, 0.2, 1.2, 0.2, 1.3, 1.8, NA),
#' Species = c("setosa", NA, "versicolor", "setosa",
#'            NA, "virginica", "setosa")
#' )

result_df_mean <- fill_missing_values(df, method = "mean")

result_df_mean
#> # A tibble: 7 × 5
#>   Sepal_Length Sepal.Width Petal_Length Petal_Width Species   
#>          <dbl>       <dbl>        <dbl>       <dbl> <chr>     
#> 1         5.2          4.1          1.5        0.94 setosa    
#> 2         5            3.6          1.4        0.2  setosa    
#> 3         5.7          3            4.2        1.2  versicolor
#> 4         5.72         3            1.4        0.2  setosa    
#> 5         6.2          2.9          3          1.3  setosa    
#> # ℹ 2 more rows

Impute using the geometric mean for continuous variables and
specify variables Petal_Length and
Petal_Width

result_df_geomean <- fill_missing_values(df, selected_variables = c
("Petal_Length", "Petal_Width"), method = "geometric")

result_df_geomean
#> # A tibble: 7 × 5
#>   Sepal_Length Sepal.Width Petal_Length Petal_Width Species   
#>          <dbl>       <dbl>        <dbl>       <dbl> <chr>     
#> 1          5.2         4.1         1.5        0.732 setosa    
#> 2          5           3.6         1.4        0.2   NA        
#> 3          5.7         3           4.2        1.2   versicolor
#> 4         NA           3           1.4        0.2   setosa    
#> 5          6.2         2.9         2.22       1.3   NA        
#> # ℹ 2 more rows
…
You can use the fill_missing_values() in a grouped data
frame by using other grouping and map functions. Here is an example of
how to do this:

sample_iris <- tibble::tibble(
Sepal_Length = c(5.2, 5, 5.7, NA, 6.2, 6.7, 5.5),
Petal_Length = c(1.5, 1.4, 4.2, 1.4, NA, 5.8, 3.7),
Petal_Width = c(0.3, 0.2, 1.2, 0.2, 1.3, 1.8, NA),
Species = c("setosa", "setosa", "versicolor", "setosa",
          "virginica", "virginica", "setosa")
)

sample_iris
#> # A tibble: 7 × 4
#>   Sepal_Length Petal_Length Petal_Width Species   
#>          <dbl>        <dbl>       <dbl> <chr>     
#> 1          5.2          1.5         0.3 setosa    
#> 2          5            1.4         0.2 setosa    
#> 3          5.7          4.2         1.2 versicolor
#> 4         NA            1.4         0.2 setosa    
#> 5          6.2         NA           1.3 virginica 
#> # ℹ 2 more rows

sample_iris %>%
  group_by(Species) %>%
  group_split() %>%
  map_df(fill_missing_values, method = "median")
#> # A tibble: 7 × 4
#>   Sepal_Length Petal_Length Petal_Width Species   
#>          <dbl>        <dbl>       <dbl> <chr>     
#> 1          5.2          1.5         0.3 setosa    
#> 2          5            1.4         0.2 setosa    
#> 3          5.2          1.4         0.2 setosa    
#> 4          5.5          3.7         0.2 setosa    
#> 5          5.7          4.2         1.2 versicolor
#> # ℹ 2 more rows
…
